04 Relationships between Words
…
bigrams_separated <- austen_bigrams %>%
  separate(bigram, c("word1", "word2"), sep = " ")

bigrams_filtered <- bigrams_separated %>%
  filter(!word1 %in% stop_words$word) %>%
  filter(!word2 %in% stop_words$word)

# new bigram counts:
bigram_counts <- bigrams_filtered %>%
  count(word1, word2, sort = TRUE)

bigram_counts

## Source: local data frame [33,421 x 3]
## Groups: word1 [6,711]
## 
##      word1     word2     n
##      <chr>     <chr> <int>
## 1      sir    thomas   287
## 2     miss  crawford   215
## 3  captain wentworth   170
## 4     miss woodhouse   162
## 5    frank churchill   132
## 6     lady   russell   118
## 7     lady   bertram   114
## 8      sir    walter   113
## 9     miss   fairfax   109
## 10 colonel   brandon   108
## # ... with 33,411 more rows
…
In other analyses the most common trigrams, which are consecutive sequences of 3 words, can be also interesting.

austen_books() %>%
  unnest_tokens(trigram, text, token = "ngrams", n = 3) %>%
  separate(trigram, c("word1", "word2", "word3"), sep = " ") %>%
  filter(!word1 %in% stop_words$word,
         !word2 %in% stop_words$word,
         !word3 %in% stop_words$word) %>%
  count(word1, word2, word3, sort = TRUE)

## Source: local data frame [8,757 x 4]
## Groups: word1, word2 [7,462]
## 
##        word1     word2     word3     n
##        <chr>     <chr>     <chr> <int>
## 1       dear      miss woodhouse    23
## 2       miss        de    bourgh    18
## 3       lady catherine        de    14
## 4  catherine        de    bourgh    13
## 5       poor      miss    taylor    11
## 6        sir    walter    elliot    11
## 7        ten  thousand    pounds    11
## 8       dear       sir    thomas    10
## 9     twenty  thousand    pounds     8
## 10   replied      miss  crawford     7
## # ... with 8,747 more rows

04_01_02 Analyzing Bigrams

This one-bigram-per-row format is helpful for exploratory analyses of the text. As a simple example, the most common streets mentioned in each book can be interesting:

bigrams_filtered %>%
  filter(word2 == "street") %>%
  count(book, word1, sort = TRUE)

## Source: local data frame [34 x 3]
## Groups: book [6]
## 
##                   book       word1     n
##                 <fctr>       <chr> <int>
## 1  Sense & Sensibility    berkeley    16
## 2  Sense & Sensibility      harley    16
## 3     Northanger Abbey    pulteney    14
## 4     Northanger Abbey      milsom    11
## 5       Mansfield Park     wimpole    10
## 6    Pride & Prejudice gracechurch     9
## 7  Sense & Sensibility     conduit     6
## 8  Sense & Sensibility        bond     5
## 9           Persuasion      milsom     5
## 10          Persuasion      rivers     4
## # ... with 24 more rows

A bigram can also be treated as a term in a document in the same way that individual words are treated.

bigram_tf_idf <- bigrams_united %>%
  count(book, bigram) %>%
  bind_tf_idf(bigram, book, n) %>%
  arrange(desc(tf_idf))

bigram_tf_idf

## Source: local data frame [36,217 x 6]
## Groups: book [6]
## 
##                   book            bigram     n         tf      idf
##                 <fctr>             <chr> <int>      <dbl>    <dbl>
## 1           Persuasion captain wentworth   170 0.02985599 1.791759
## 2       Mansfield Park        sir thomas   287 0.02873160 1.791759
## 3       Mansfield Park     miss crawford   215 0.02152368 1.791759
## 4           Persuasion      lady russell   118 0.02072357 1.791759
## 5           Persuasion        sir walter   113 0.01984545 1.791759
## 6                 Emma    miss woodhouse   162 0.01700966 1.791759
## 7     Northanger Abbey       miss tilney    82 0.01594400 1.791759
## 8  Sense & Sensibility   colonel brandon   108 0.01502086 1.791759
## 9                 Emma   frank churchill   132 0.01385972 1.791759
## 10   Pride & Prejudice    lady catherine   100 0.01380453 1.791759
## # ... with 36,207 more rows, and 1 more variables: tf_idf <dbl>

Much as I discovered in earlier, the units that distinguish each Austen book are almost exclusively names. I also notice some pairings of a common verb and a name, such as replied elizabeth in Pride & Prejudice, or cried emma in Emma.

There are advantages and disadvantages to examining the tf-idf of bigrams rather than individual words. Pairs of consecutive words might capture structure that isnt present when one is just counting single words, and may provide context that makes tokens more understandable (for example, pulteney street, in Northanger Abbey, is more informative than pulteney).

04_01_03 Using Bigrams to provide Context in Setiment Analysis

One of the problems with this approach is that a words context can matter nearly as much as its presence. For example, the words happy and like will be counted as positive, even in a sentence like Im not happy and I dont like it!Now that we have the data organized into bigrams, its easy to tell how often words are preceded by a word like not:

bigrams_separated %>%
  filter(word1 == "not") %>%
  count(word1, word2, sort = TRUE)

## Source: local data frame [1,246 x 3]
## Groups: word1 [1]
## 
##    word1 word2     n
##    <chr> <chr> <int>
## 1    not    be   610
## 2    not    to   355
## 3    not  have   327
## 4    not  know   252
## 5    not     a   189
## 6    not think   176
## 7    not  been   160
## 8    not   the   147
## 9    not    at   129
## 10   not    in   118
## # ... with 1,236 more rows
…
While not like and not help are still the two most common examples, we can also see pairings such as no great and never loved. We could combine this with the approaches in Chapter 2 to reverse the AFINN scores of each word that follows a negation. These are just a few examples of how finding consecutive words can give context to text mining methods.

04_01_04 Visualizing a Network of Bigrams with ggraph

The igraph package has many powerful functions for manipulating and analyzing networks. One way to create an igraph object from tidy data is the graph_from_data_frame() function, which takes a data frame of edges with columns for from, to, and edge attributes (in this case n):

# original counts
bigram_counts

## Source: local data frame [33,421 x 3]
## Groups: word1 [6,711]
## 
##      word1     word2     n
##      <chr>     <chr> <int>
## 1      sir    thomas   287
## 2     miss  crawford   215
## 3  captain wentworth   170
## 4     miss woodhouse   162
## 5    frank churchill   132
## 6     lady   russell   118
## 7     lady   bertram   114
## 8      sir    walter   113
## 9     miss   fairfax   109
## 10 colonel   brandon   108
## # ... with 33,411 more rows
…
