03 Analyzing Word and Document Frequency
…
There are very long tails to the right for these novels (those extremely common words!) that I have not shown in these plots. These plots exhibit similar distributions for all the novels, with many words that occur rarely and fewer words that occur frequently.

03_02 Zipfs Law

Since I have the data frame I used to plot term frequency, I can examine Zipfs law for Jane Austens novels with just a few lines of dplyr functions. Zipfs law states that the frequency that a word appears is inversely proportional to its rank.

freq_by_rank <- book_words %>%
  group_by(book) %>%
  mutate(rank = row_number(),
         `term frequency` = n/total)

freq_by_rank

## Source: local data frame [40,379 x 6]
## Groups: book [6]
## 
##                 book  word     n  total  rank `term frequency`
##               <fctr> <chr> <int>  <int> <int>            <dbl>
## 1     Mansfield Park   the  6206 160460     1       0.03867631
## 2     Mansfield Park    to  5475 160460     2       0.03412065
## 3     Mansfield Park   and  5438 160460     3       0.03389007
## 4               Emma    to  5239 160996     1       0.03254118
## 5               Emma   the  5201 160996     2       0.03230515
## 6               Emma   and  4896 160996     3       0.03041069
## 7     Mansfield Park    of  4778 160460     4       0.02977689
## 8  Pride & Prejudice   the  4331 122204     1       0.03544074
## 9               Emma    of  4291 160996     4       0.02665284
## 10 Pride & Prejudice    to  4162 122204     2       0.03405780
## # ... with 40,369 more rows
…
